Forsøg 1/Data/Rolling_ball/csv/Slope_1_1_stor_venstre.csv

#Digilent WaveForms Oscilloscope Acquisition
#Device Name: Discovery2
#Serial Number: SN:210321AA21E1
#Date Time: 2021-12-03 10:36:49.900
#Sample rate: 50000Hz
#Samples: 125000
#Trigger: Source: Channel 1 Type: Edge Condition: Rising Level: 2 V Hyst.: Auto HoldOff: 100 ns
#Channel 1: Range: 500 mV/div Offset: -2 V Attenuation: 1 X
#Power Supplies: OFF
#Positive Supply: Rdy
#Voltage: 5 V
#Negative Supply: Rdy
#Voltage: -1 V

Time (s),Channel 1 (V)
-0.25,0.784786696231339
-0.2499800000000001,0.784786696231339
-0.24996,0.784786696231339
-0.2499400000000001,0.784786696231339
-0.2499199999999999,0.7844494864376859
-0.2499,0.784786696231339
-0.2498800000000001,0.784786696231339
-0.24986,0.784786696231339
-0.2498400000000001,0.7844494864376834
-0.2498199999999999,0.784786696231339
-0.2498,0.7844494864376834
-0.2497799999999999,0.784786696231339
-0.24976,0.784786696231339
-0.2497400000000001,0.7844494864376859
-0.2497199999999999,0.7844494864376834
-0.2497,0.784786696231339
-0.2496799999999999,0.7847866962313366
-0.24966,0.7844494864376834
-0.2496400000000001,0.7844494864376834
-0.24962,0.784786696231339
-0.2496,0.784786696231339
-0.2495799999999999,0.784786696231339
-0.24956,0.784786696231339
-0.2495400000000001,0.784786696231339
-0.24952,0.784786696231339
-0.2495000000000001,0.784786696231339
-0.2494799999999999,0.784786696231339
-0.24946,0.784786696231339
-0.2494400000000001,0.784786696231339
-0.24942,0.784786696231339
-0.2494000000000001,0.784786696231339
-0.2493799999999999,0.784786696231339
-0.24936,0.784786696231339
-0.2493399999999999,0.784786696231339
-0.24932,0.784786696231339
-0.2493000000000001,0.784786696231339
-0.2492799999999999,0.784786696231339
-0.24926,0.7844494864376834
-0.2492399999999999,0.784786696231339
-0.24922,0.784786696231339
-0.2492000000000001,0.784786696231339
-0.24918,0.784786696231339
-0.24916,0.784786696231339
-0.2491399999999999,0.784786696231339
-0.24912,0.784786696231339
-0.2491000000000001,0.784786696231339
-0.24908,0.784786696231339
-0.2490600000000001,0.784786696231339
-0.2490399999999999,0.784786696231339
-0.24902,0.784786696231339
-0.2490000000000001,0.784786696231339
-0.24898,0.784786696231339
-0.2489600000000001,0.784786696231339
-0.2489399999999999,0.784786696231339
-0.24892,0.784786696231339
-0.2488999999999999,0.784786696231339
-0.24888,0.784786696231339
-0.2488600000000001,0.784786696231339
-0.24884,0.784786696231339
-0.24882,0.784786696231339
-0.2487999999999999,0.784786696231339
-0.24878,0.784786696231339
-0.2487600000000001,0.784786696231339
-0.24874,0.784786696231339
-0.2487200000000001,0.784786696231339
-0.2486999999999999,0.784786696231339
-0.24868,0.784786696231339
-0.2486600000000001,0.784786696231339
-0.24864,0.784786696231339
-0.2486200000000001,0.784786696231339
-0.2485999999999999,0.784786696231339
-0.24858,0.784786696231339
-0.2485599999999999,0.7847866962313366
-0.24854,0.7844494864376834
-0.2485200000000001,0.7847866962313366
-0.2484999999999999,0.784786696231339
-0.24848,0.7844494864376834
-0.2484599999999999,0.784786696231339
-0.24844,0.784786696231339
-0.2484200000000001,0.784786696231339
-0.2484,0.784786696231339
-0.24838,0.784786696231339
-0.2483599999999999,0.7847866962313366
-0.24834,0.7844494864376834
-0.2483200000000001,0.7847866962313366
-0.2483,0.784786696231339
-0.2482800000000001,0.784786696231339
-0.2482599999999999,0.784786696231339
-0.24824,0.784786696231339
-0.2482200000000001,0.784786696231339
-0.2482,0.784786696231339
-0.2481800000000001,0.784786696231339
-0.2481599999999999,0.784786696231339
-0.24814,0.784786696231339
-0.2481199999999999,0.784786696231339
-0.2481,0.784786696231339
-0.2480800000000001,0.784786696231339
-0.2480599999999999,0.7851239060249948
-0.24804,0.784786696231339
-0.2480199999999999,0.784786696231339
-0.248,0.784786696231339
-0.2479800000000001,0.784786696231339
-0.24796,0.784786696231339
-0.24794,0.784786696231339
-0.2479199999999999,0.784786696231339
-0.2479,0.784786696231339
-0.2478800000000001,0.784786696231339
-0.24786,0.784786696231339
-0.2478400000000001,0.784786696231339
-0.2478199999999999,0.784786696231339
-0.2478,0.784786696231339
-0.2477799999999999,0.784786696231339
-0.24776,0.784786696231339
-0.2477400000000001,0.784786696231339
-0.2477199999999999,0.7844494864376834
-0.2477,0.784786696231339
-0.2476799999999999,0.7847866962313415
-0.24766,0.7851239060249948
-0.2476400000000001,0.7847866962313415
-0.24762,0.784786696231339
-0.2476,0.784786696231339
-0.2475799999999999,0.784786696231339
-0.24756,0.784786696231339
-0.2475400000000001,0.784786696231339
-0.24752,0.784786696231339
-0.2475000000000001,0.784786696231339
-0.2474799999999999,0.784786696231339
-0.24746,0.784786696231339
-0.2474400000000001,0.784786696231339
-0.24742,0.784786696231339
-0.2474000000000001,0.784786696231339
-0.2473799999999999,0.784786696231339
-0.24736,0.784786696231339
-0.2473399999999999,0.784786696231339
-0.24732,0.784786696231339
-0.2473000000000001,0.7844494864376859
-0.2472799999999999,0.784786696231339
-0.24726,0.784786696231339
-0.2472399999999999,0.7844494864376859
-0.24722,0.784786696231339
-0.2472000000000001,0.784786696231339
-0.24718,0.784786696231339
-0.24716,0.784786696231339
-0.2471399999999999,0.784786696231339
-0.24712,0.784786696231339
-0.2471000000000001,0.7844494864376859
-0.24708,0.784786696231339
-0.2470600000000001,0.784786696231339
-0.2470399999999999,0.784786696231339
-0.24702,0.784786696231339
-0.2470000000000001,0.784786696231339
-0.24698,0.784786696231339
-0.2469600000000001,0.784786696231339
-0.2469399999999999,0.784786696231339
-0.24692,0.7844494864376834
-0.2468999999999999,0.7844494864376859
-0.24688,0.784786696231339
-0.2468600000000001,0.784786696231339
-0.2468399999999999,0.784786696231339
-0.24682,0.784786696231339
-0.2467999999999999,0.784786696231339
-0.24678,0.784786696231339
-0.2467600000000001,0.784786696231339
-0.24674,0.784786696231339
-0.2467200000000001,0.784786696231339
-0.2466999999999999,0.7847866962313366
-0.24668,0.7844494864376834
-0.2466600000000001,0.7844494864376834
-0.24664,0.784786696231339
-0.2466200000000001,0.784786696231339
-0.2465999999999999,0.784786696231339
-0.24658,0.784786696231339
-0.2465599999999999,0.7847866962313366
-0.24654,0.7844494864376834
-0.2465200000000001,0.784786696231339
-0.2464999999999999,0.784786696231339
-0.24648,0.784786696231339
-0.2464599999999999,0.784786696231339
-0.24644,0.784786696231339
-0.2464200000000001,0.784786696231339
-0.2464,0.784786696231339
-0.24638,0.784786696231339
-0.2463599999999999,0.784786696231339
-0.24634,0.784786696231339
-0.2463200000000001,0.784786696231339
-0.2463,0.784786696231339
-0.2462800000000001,0.784786696231339
-0.2462599999999999,0.784786696231339
-0.24624,0.784786696231339
-0.2462200000000001,0.784786696231339
-0.2462,0.784786696231339
-0.2461800000000001,0.784786696231339
-0.2461599999999999,0.784786696231339
-0.24614,0.784786696231339
-0.2461199999999999,0.7844494864376859
-0.2461,0.784786696231339
-0.2460800000000001,0.784786696231339
-0.2460599999999999,0.784786696231339
-0.24604,0.7844494864376834
-0.2460199999999999,0.7847866962313366
-0.246,0.7844494864376834
-0.2459800000000001,0.7847866962313366
-0.24596,0.784786696231339
-0.24594,0.784786696231339
-0.2459199999999999,0.7844494864376859
-0.2459,0.784786696231339
-0.2458800000000001,0.784786696231339
-0.24586,0.784786696231339
-0.2458400000000001,0.784786696231339
-0.2458199999999999,0.784786696231339
-0.2458,0.784786696231339
-0.2457800000000001,0.784786696231339
-0.24576,0.784786696231339
-0.2457400000000001,0.784786696231339
-0.2457199999999999,0.784786696231339
-0.2457,0.784786696231339
-0.2456799999999999,0.7847866962313366
-0.24566,0.7844494864376834
-0.2456400000000001,0.7847866962313366
-0.2456199999999999,0.784786696231339
-0.2456,0.784786696231339
-0.2455799999999999,0.7844494864376859
-0.24556,0.784786696231339
-0.2455400000000001,0.784786696231339
-0.24552,0.784786696231339
-0.2455000000000001,0.784786696231339
-0.2454799999999999,0.784786696231339
-0.24546,0.784786696231339
-0.2454400000000001,0.784786696231339
-0.24542,0.784786696231339
-0.2454000000000001,0.784786696231339
-0.2453799999999999,0.784786696231339
-0.24536,0.784786696231339
-0.2453399999999999,0.784786696231339
-0.24532,0.784786696231339
-0.2453000000000001,0.784786696231339
-0.2452799999999999,0.784786696231339
-0.24526,0.784786696231339
-0.2452399999999999,0.784786696231339
-0.24522,0.784786696231339
-0.2452000000000001,0.784786696231339
-0.24518,0.784786696231339
-0.24516,0.7851239060249948
-0.2451399999999999,0.7851239060249924
-0.24512,0.784786696231339
-0.2451000000000001,0.784786696231339
-0.24508,0.784786696231339
-0.2450600000000001,0.784786696231339
-0.2450399999999999,0.784786696231339
-0.24502,0.784786696231339
-0.2450000000000001,0.784786696231339
-0.24498,0.784786696231339
-0.2449600000000001,0.784786696231339
-0.2449399999999999,0.784786696231339
-0.24492,0.784786696231339
-0.2448999999999999,0.7851239060249924
-0.24488,0.784786696231339
-0.2448600000000001,0.784786696231339
-0.2448399999999999,0.784786696231339
-0.24482,0.784786696231339
-0.2447999999999999,0.784786696231339
-0.24478,0.784786696231339
-0.2447600000000001,0.784786696231339
-0.24474,0.784786696231339
-0.24472,0.784786696231339
-0.2446999999999999,0.784786696231339
-0.24468,0.784786696231339
-0.2446600000000001,0.784786696231339
-0.24464,0.784786696231339
-0.2446200000000001,0.784786696231339
-0.2445999999999999,0.784786696231339
-0.24458,0.784786696231339
-0.2445600000000001,0.784786696231339
-0.24454,0.7844494864376834
-0.2445200000000001,0.7844494864376834
-0.2444999999999999,0.784786696231339
-0.24448,0.784786696231339
-0.2444599999999999,0.784786696231339
-0.24444,0.784786696231339
-0.2444200000000001,0.784786696231339
-0.2444,0.784786696231339
-0.24438,0.784786696231339
-0.2443599999999999,0.784786696231339
-0.24434,0.784786696231339
-0.2443200000000001,0.784786696231339
-0.2443,0.784786696231339
-0.2442800000000001,0.784786696231339
-0.2442599999999999,0.784786696231339
-0.24424,0.784786696231339
-0.2442200000000001,0.7844494864376859
-0.2442,0.784786696231339
-0.2441800000000001,0.784786696231339
-0.2441599999999999,0.784786696231339
-0.24414,0.784786696231339
-0.2441199999999999,0.784786696231339
-0.2441,0.784786696231339
-0.2440800000000001,0.784786696231339
-0.2440599999999999,0.784786696231339
-0.24404,0.784786696231339
-0.2440199999999999,0.784786696231339
-0.244,0.784786696231339
-0.2439800000000001,0.784786696231339
-0.24396,0.784786696231339
-0.24394,0.784786696231339
-0.2439199999999999,0.784786696231339
-0.2439,0.784786696231339
-0.2438800000000001,0.784786696231339
-0.24386,0.784786696231339
-0.2438400000000001,0.784786696231339
-0.2438199999999999,0.784786696231339
-0.2438,0.784786696231339
-0.2437800000000001,0.784786696231339
-0.24376,0.784786696231339
-0.2437400000000001,0.784786696231339
-0.2437199999999999,0.784786696231339
-0.2437,0.784786696231339
-0.2436799999999999,0.7847866962313366
-0.24366,0.7844494864376834
-0.2436400000000001,0.7847866962313366
-0.2436199999999999,0.784786696231339
-0.2436,0.784786696231339
-0.2435799999999999,0.784786696231339
-0.24356,0.784786696231339
-0.2435400000000001,0.784786696231339
-0.24352,0.784786696231339
-0.2435,0.784786696231339
-0.2434799999999999,0.784786696231339
-0.24346,0.784786696231339
-0.2434400000000001,0.784786696231339
-0.24342,0.784786696231339
-0.2434000000000001,0.784786696231339
-0.2433799999999999,0.784786696231339
-0.24336,0.7851239060249948
-0.2433399999999999,0.784786696231339
-0.24332,0.784786696231339
-0.2433000000000001,0.784786696231339
-0.2432799999999999,0.784786696231339
-0.24326,0.784786696231339
-0.2432399999999999,0.784786696231339
-0.24322,0.784786696231339
-0.2432000000000001,0.7844494864376859
-0.24318,0.784786696231339
-0.24316,0.784786696231339
-0.2431399999999999,0.7847866962313366
-0.24312,0.7844494864376834
-0.2431000000000001,0.7851239060249899
-0.24308,0.784786696231339
-0.2430600000000001,0.784786696231339
-0.2430399999999999,0.784786696231339
-0.24302,0.784786696231339
-0.2430000000000001,0.784786696231339
-0.24298,0.784786696231339
-0.2429600000000001,0.7851239060249948
-0.2429399999999999,0.7851239060249948
-0.24292,0.7851239060249948
-0.2428999999999999,0.7847866962313415
-0.24288,0.7851239060249948
-0.2428600000000001,0.7847866962313415
-0.2428399999999999,0.784786696231339
-0.24282,0.7851239060249948
-0.2427999999999999,0.784786696231339
-0.24278,0.784786696231339
-0.2427600000000001,0.784786696231339
-0.24274,0.784786696231339
-0.24272,0.784786696231339
-0.2426999999999999,0.784786696231339
-0.24268,0.784786696231339
-0.2426600000000001,0.784786696231339
-0.24264,0.784786696231339
-0.2426200000000001,0.784786696231339
-0.2425999999999999,0.7847866962313415
-0.24258,0.7851239060249948
-0.2425600000000001,0.7847866962313415
-0.24254,0.784786696231339
-0.2425200000000001,0.784786696231339
-0.2424999999999999,0.784786696231339
-0.24248,0.784786696231339
-0.2424599999999999,0.7851239060249948
-0.24244,0.7851239060249948
-0.2424200000000001,0.7851239060249948
-0.2423999999999999,0.7851239060249948
-0.24238,0.7851239060249948
-0.2423599999999999,0.7851239060249924
-0.24234,0.784786696231339
-0.2423200000000001,0.784786696231339
-0.2423,0.784786696231339
-0.2422800000000001,0.784786696231339
-0.2422599999999999,0.7851239060249948
-0.24224,0.7851239060249948
-0.2422200000000001,0.7847866962313415
-0.2422,0.784786696231339
-0.2421800000000001,0.7851239060249948
-0.2421599999999999,0.784786696231339
-0.24214,0.784786696231339
-0.2421199999999999,0.784786696231339
-0.2421,0.784786696231339
-0.2420800000000001,0.7851239060249924
-0.2420599999999999,0.784786696231339
-0.24204,0.784786696231339
-0.2420199999999999,0.784786696231339
-0.242,0.784786696231339
-0.2419800000000001,0.784786696231339
-0.24196,0.784786696231339
-0.24194,0.784786696231339
-0.2419199999999999,0.784786696231339
-0.2419,0.784786696231339
-0.2418800000000001,0.7851239060249924
-0.24186,0.7851239060249948
-0.2418400000000001,0.784786696231339
-0.2418199999999999,0.7847866962313415
-0.2418,0.7851239060249948
-0.2417800000000001,0.7851239060249948
-0.24176,0.784786696231339
-0.2417400000000001,0.784786696231339
-0.2417199999999999,0.784786696231339
-0.2417,0.784786696231339
-0.2416799999999999,0.7847866962313415
-0.24166,0.7851239060249948
-0.2416400000000001,0.7847866962313415
-0.2416199999999999,0.784786696231339
-0.2416,0.784786696231339
-0.2415799999999999,0.784786696231339
-0.24156,0.784786696231339
-0.2415400000000001,0.7851239060249924
-0.24152,0.784786696231339
-0.2415,0.784786696231339
-0.2414799999999999,0.784786696231339
-0.24146,0.784786696231339
-0.2414400000000001,0.7851239060249924
-0.24142,0.784786696231339
-0.2414000000000001,0.784786696231339
-0.2413799999999999,0.784786696231339
-0.24136,0.784786696231339
-0.2413400000000001,0.784786696231339
-0.24132,0.784786696231339
-0.2413000000000001,0.784786696231339
-0.2412799999999999,0.784786696231339
-0.24126,0.784786696231339
-0.2412399999999999,0.784786696231339
-0.24122,0.784786696231339
-0.2412000000000001,0.784786696231339
-0.2411799999999999,0.784786696231339
-0.24116,0.784786696231339
-0.2411399999999999,0.784786696231339
-0.24112,0.784786696231339
-0.2411000000000001,0.784786696231339
-0.24108,0.784786696231339
-0.2410600000000001,0.784786696231339
-0.2410399999999999,0.784786696231339
-0.24102,0.784786696231339
-0.2410000000000001,0.7851239060249924
-0.24098,0.784786696231339
-0.2409600000000001,0.784786696231339
-0.2409399999999999,0.784786696231339
-0.24092,0.784786696231339
-0.2408999999999999,0.7851239060249948
-0.24088,0.7851239060249948
-0.2408600000000001,0.7851239060249948
-0.2408399999999999,0.784786696231339
-0.24082,0.784786696231339
-0.2407999999999999,0.784786696231339
-0.24078,0.784786696231339
-0.2407600000000001,0.784786696231339
-0.24074,0.784786696231339
-0.24072,0.784786696231339
-0.2406999999999999,0.784786696231339
-0.24068,0.784786696231339
-0.2406600000000001,0.784786696231339
-0.24064,0.784786696231339
-0.2406200000000001,0.784786696231339
-0.2405999999999999,0.7844494864376834
-0.24058,0.7844494864376834
-0.2405600000000001,0.7847866962313366
-0.24054,0.784786696231339
-0.2405200000000001,0.7844494864376834
-0.2404999999999999,0.784786696231339
-0.24048,0.784786696231339
-0.2404599999999999,0.784786696231339
-0.24044,0.784786696231339
-0.2404200000000001,0.784786696231339
-0.2403999999999999,0.784786696231339
-0.24038,0.7851239060249948
-0.2403599999999999,0.784786696231339
-0.24034,0.784786696231339
-0.2403200000000001,0.784786696231339
-0.2403,0.784786696231339
-0.24028,0.784786696231339
-0.2402599999999999,0.7847866962313415
-0.24024,0.7851239060249948
-0.2402200000000001,0.7847866962313415
-0.2402,0.784786696231339
-0.2401800000000001,0.7851239060249948
-0.2401599999999999,0.7851239060249948
-0.24014,0.7851239060249948
-0.2401199999999999,0.784786696231339
-0.2401,0.784786696231339
-0.2400800000000001,0.7851239060249948
-0.2400599999999999,0.7851239060249948
-0.24004,0.784786696231339
-0.2400199999999999,0.7851239060249948
-0.24,0.7851239060249948
-0.2399800000000001,0.7847866962313415
-0.23996,0.7851239060249948
-0.23994,0.7851239060249948
-0.2399199999999999,0.784786696231339
-0.2399,0.784786696231339
-0.2398800000000001,0.7851239060249924
-0.23986,0.784786696231339
-0.2398400000000001,0.784786696231339
-0.2398199999999999,0.784786696231339
-0.2398,0.784786696231339
-0.2397800000000001,0.784786696231339
-0.23976,0.784786696231339
-0.2397400000000001,0.784786696231339
-0.2397199999999999,0.784786696231339
-0.2397,0.784786696231339
-0.2396799999999999,0.784786696231339
-0.23966,0.784786696231339
-0.2396400000000001,0.784786696231339
-0.2396199999999999,0.784786696231339
-0.2396,0.784786696231339
-0.2395799999999999,0.784786696231339
-0.23956,0.784786696231339
-0.2395400000000001,0.784786696231339
-0.23952,0.784786696231339
-0.2395,0.784786696231339
-0.2394799999999999,0.784786696231339
-0.23946,0.784786696231339
-0.2394400000000001,0.784786696231339
-0.23942,0.7851239060249948
-0.2394000000000001,0.784786696231339
-0.2393799999999999,0.784786696231339
-0.23936,0.784786696231339
-0.2393400000000001,0.784786696231339
-0.23932,0.784786696231339
-0.2393000000000001,0.784786696231339
-0.2392799999999999,0.784786696231339
-0.23926,0.784786696231339
-0.2392399999999999,0.784786696231339
-0.23922,0.784786696231339
-0.2392000000000001,0.784786696231339
-0.2391799999999999,0.784786696231339
-0.23916,0.784786696231339
-0.2391399999999999,0.7844494864376859
-0.23912,0.784786696231339
-0.2391000000000001,0.784786696231339
-0.23908,0.784786696231339
-0.2390600000000001,0.784786696231339
-0.2390399999999999,0.7851239060249924
-0.23902,0.784786696231339
-0.2390000000000001,0.784786696231339
-0.23898,0.7851239060249948
-0.2389600000000001,0.784786696231339
-0.2389399999999999,0.784786696231339
-0.23892,0.784786696231339
-0.2388999999999999,0.784786696231339
-0.23888,0.784786696231339
-0.2388600000000001,0.784786696231339
-0.2388399999999999,0.784786696231339
-0.23882,0.784786696231339
-0.2387999999999999,0.784786696231339
-0.23878,0.784786696231339
-0.2387600000000001,0.784786696231339
-0.23874,0.784786696231339
-0.23872,0.784786696231339
-0.2386999999999999,0.784786696231339
-0.23868,0.784786696231339
-0.2386600000000001,0.784786696231339
-0.23864,0.7851239060249948
-0.2386200000000001,0.784786696231339
-0.2385999999999999,0.7847866962313415
-0.23858,0.7851239060249948
-0.2385600000000001,0.7851239060249948
-0.23854,0.784786696231339
-0.2385200000000001,0.784786696231339
-0.2384999999999999,0.7851239060249948
-0.23848,0.784786696231339
-0.2384599999999999,0.7847866962313415
-0.23844,0.7851239060249948
-0.2384200000000001,0.7847866962313415
-0.2383999999999999,0.7851239060249948
-0.23838,0.7851239060249948
-0.2383599999999999,0.784786696231339
-0.23834,0.784786696231339
-0.2383200000000001,0.784786696231339
-0.2383,0.7851239060249948
-0.23828,0.7851239060249948
-0.2382599999999999,0.7851239060249924
-0.23824,0.784786696231339
